{
  "type": "FeatureCollection",
  "features": [
    { "type": "Feature", "geometry": { "type": "Point", "coordinates": [-77.032, 38.913] } },
    { "type": "Feature", "geometry": { "type": "Point", "coordinates": [-122.414, 37.776] } },
    { "type": "Feature", "geometry": { "type": "Point", "coordinates": [30.2642, 59.8944] } },
    { "type": "Feature", "geometry": { "type": "Point", "coordinates": [19.0386, 47.5083] } },
    { "type": "Feature", "geometry": { "type": "Point", "coordinates": [9.491, 51.2993] } },
    { "type": "Feature", "geometry": { "type": "Point", "coordinates": [12.0564, 55.7123] } },
    { "type": "Feature", "geometry": { "type": "Point", "coordinates": [33.3, 68.15] } },
    { "type": "Feature", "geometry": { "type": "Point", "coordinates": [115.275, 39.8897] } },
    { "type": "Feature", "geometry": { "type": "Point", "coordinates": [116.3883, 39.9289] } },
    { "type": "Feature", "geometry": { "type": "Point", "coordinates": [9.491, 51.2993] } },
    { "type": "Feature", "geometry": { "type": "Point", "coordinates": [-0.1224, 51.4964] } }
  ]
}
